{
  "qmodeltd": {},
  "@quasar/icon-genie": {
    "minify_dev": "pngquant",
    "minify_build": "pngcrush",
    "cordova": {
      "background_color": "#000074",
      "splashscreen_type": "pure"
    },
    "build_always": true,
    "__internal": {
      "dev": {
        "pwa": {
          "iconHash": "b92d0eea5dad844c7153993558ac3066"
        },
        "spa": {
          "iconHash": "b92d0eea5dad844c7153993558ac3066"
        }
      },
      "build": {}
    }
  },
  "@quasar/qenv": {
    "common_root_object": "BlisConfig",
    "add_qenv_to_gitignore": true
  },
  "@quasar/testing": {
    "harnesses": [
      "unit-jest",
      "e2e-cypress"
    ]
  },
  "@quasar/testing-unit-jest": {
    "babel": "babelrc",
    "options": [
      "scripts",
      "SFC",
      "wallabyjs",
      "majestic"
    ]
  },
  "@quasar/testing-e2e-cypress": {
    "options": [
      "scripts"
    ]
  }
}